%YAML 1.1
%TAG !u! tag:unity3d.com,2011:
--- !u!74 &7400000
AnimationClip:
  m_ObjectHideFlags: 0
  m_CorrespondingSourceObject: {fileID: 0}
  m_PrefabInstance: {fileID: 0}
  m_PrefabAsset: {fileID: 0}
  m_Name: coin
  serializedVersion: 6
  m_Legacy: 0
  m_Compressed: 0
  m_UseHighQualityCurve: 1
  m_RotationCurves: []
  m_CompressedRotationCurves: []
  m_EulerCurves: []
  m_PositionCurves: []
  m_ScaleCurves: []
  m_FloatCurves: []
  m_PPtrCurves:
  - curve:
    - time: 0
      value: {fileID: 21300000, guid: 5ed5157cf45e6ee409511594fb89377b, type: 3}
    - time: 0.083333336
      value: {fileID: 21300000, guid: 284a590648cd2624cbd085c4f1627465, type: 3}
    - time: 0.16666667
      value: {fileID: 21300000, guid: 49b76ee0d3655ee4c8402582c1c02c93, type: 3}
    - time: 0.25
      value: {fileID: 21300000, guid: 01f2715068a32f44a99ba474fbf74cdf, type: 3}
    - time: 0.33333334
      value: {fileID: 21300000, guid: 829702d123e43a54c80bc02a11288a82, type: 3}
    - time: 0.41666666
      value: {fileID: 21300000, guid: 93932efaf072000449ce4c111911cfe3, type: 3}
    - time: 0.5
      value: {fileID: 21300000, guid: c925826c0552cf549a3f1123cae8db5b, type: 3}
    - time: 0.5833333
      value: {fileID: 21300000, guid: 01139edbf108bde4aa26ebc3d05c3025, type: 3}
    - time: 0.75
      value: {fileID: 21300000, guid: 3071611f52f355941ae108e3822562d3, type: 3}
    - time: 0.8333333
      value: {fileID: 21300000, guid: bfdb508608e20c14a84a06ee5d00795b, type: 3}
    - time: 0.9166667
      value: {fileID: 21300000, guid: 08e82f56b6f8f9e4da39977182df7f39, type: 3}
    - time: 1
      value: {fileID: 21300000, guid: 6ffad87630735e04d83408305dcc75b5, type: 3}
    - time: 1.0833334
      value: {fileID: 21300000, guid: 4188406557eaca0488459eba94278250, type: 3}
    - time: 1.1666666
      value: {fileID: 21300000, guid: 7471dc94b1670e54b8f926859686caa1, type: 3}
    - time: 1.25
      value: {fileID: 21300000, guid: 27f6b32c91a50ae4088361bfd738dd14, type: 3}
    - time: 1.3333334
      value: {fileID: 21300000, guid: 570f426f740c2c5499e2f9670c12598a, type: 3}
    attribute: m_Sprite
    path: 
    classID: 212
    script: {fileID: 0}
  m_SampleRate: 12
  m_WrapMode: 0
  m_Bounds:
    m_Center: {x: 0, y: 0, z: 0}
    m_Extent: {x: 0, y: 0, z: 0}
  m_ClipBindingConstant:
    genericBindings:
    - serializedVersion: 2
      path: 0
      attribute: 0
      script: {fileID: 0}
      typeID: 212
      customType: 23
      isPPtrCurve: 1
    pptrCurveMapping:
    - {fileID: 21300000, guid: 5ed5157cf45e6ee409511594fb89377b, type: 3}
    - {fileID: 21300000, guid: 284a590648cd2624cbd085c4f1627465, type: 3}
    - {fileID: 21300000, guid: 49b76ee0d3655ee4c8402582c1c02c93, type: 3}
    - {fileID: 21300000, guid: 01f2715068a32f44a99ba474fbf74cdf, type: 3}
    - {fileID: 21300000, guid: 829702d123e43a54c80bc02a11288a82, type: 3}
    - {fileID: 21300000, guid: 93932efaf072000449ce4c111911cfe3, type: 3}
    - {fileID: 21300000, guid: c925826c0552cf549a3f1123cae8db5b, type: 3}
    - {fileID: 21300000, guid: 01139edbf108bde4aa26ebc3d05c3025, type: 3}
    - {fileID: 21300000, guid: 3071611f52f355941ae108e3822562d3, type: 3}
    - {fileID: 21300000, guid: bfdb508608e20c14a84a06ee5d00795b, type: 3}
    - {fileID: 21300000, guid: 08e82f56b6f8f9e4da39977182df7f39, type: 3}
    - {fileID: 21300000, guid: 6ffad87630735e04d83408305dcc75b5, type: 3}
    - {fileID: 21300000, guid: 4188406557eaca0488459eba94278250, type: 3}
    - {fileID: 21300000, guid: 7471dc94b1670e54b8f926859686caa1, type: 3}
    - {fileID: 21300000, guid: 27f6b32c91a50ae4088361bfd738dd14, type: 3}
    - {fileID: 21300000, guid: 570f426f740c2c5499e2f9670c12598a, type: 3}
  m_AnimationClipSettings:
    serializedVersion: 2
    m_AdditiveReferencePoseClip: {fileID: 0}
    m_AdditiveReferencePoseTime: 0
    m_StartTime: 0
    m_StopTime: 1.4166667
    m_OrientationOffsetY: 0
    m_Level: 0
    m_CycleOffset: 0
    m_HasAdditiveReferencePose: 0
    m_LoopTime: 1
    m_LoopBlend: 0
    m_LoopBlendOrientation: 0
    m_LoopBlendPositionY: 0
    m_LoopBlendPositionXZ: 0
    m_KeepOriginalOrientation: 0
    m_KeepOriginalPositionY: 1
    m_KeepOriginalPositionXZ: 0
    m_HeightFromFeet: 0
    m_Mirror: 0
  m_EditorCurves: []
  m_EulerEditorCurves: []
  m_HasGenericRootTransform: 0
  m_HasMotionFloatCurves: 0
  m_Events: []
